^C:\USERS\TEVIZION\SOURCE\REPOS\OPENCV\OPENCV\SOURCE1.CPP
/c /ZI /JMC /nologo /W3 /WX- /diagnostics:column /sdl /Od /D _DEBUG /D _CONSOLE /D _UNICODE /D UNICODE /Gm- /EHsc /RTC1 /MDd /GS /fp:precise /Zc:wchar_t /Zc:forScope /Zc:inline /permissive- /Fo"X64\DEBUG\\" /Fd"X64\DEBUG\VC143.PDB" /external:W3 /Gd /TP /FC C:\USERS\TEVIZION\SOURCE\REPOS\OPENCV\OPENCV\SOURCE1.CPP
^C:\USERS\TEVIZION\SOURCE\REPOS\OPENCV\OPENCV\SOURCECH2.CPP
/c /ZI /JMC /nologo /W3 /WX- /diagnostics:column /sdl /Od /D _DEBUG /D _CONSOLE /D _UNICODE /D UNICODE /Gm- /EHsc /RTC1 /MDd /GS /fp:precise /Zc:wchar_t /Zc:forScope /Zc:inline /permissive- /Fo"X64\DEBUG\\" /Fd"X64\DEBUG\VC143.PDB" /external:W3 /Gd /TP /FC C:\USERS\TEVIZION\SOURCE\REPOS\OPENCV\OPENCV\SOURCECH2.CPP
^C:\USERS\TEVIZION\SOURCE\REPOS\OPENCV\OPENCV\SOURCECH4CPP.CPP
/c /ZI /JMC /nologo /W3 /WX- /diagnostics:column /sdl /Od /D _DEBUG /D _CONSOLE /D _UNICODE /D UNICODE /Gm- /EHsc /RTC1 /MDd /GS /fp:precise /Zc:wchar_t /Zc:forScope /Zc:inline /permissive- /Fo"X64\DEBUG\\" /Fd"X64\DEBUG\VC143.PDB" /external:W3 /Gd /TP /FC C:\USERS\TEVIZION\SOURCE\REPOS\OPENCV\OPENCV\SOURCECH4CPP.CPP
^C:\USERS\TEVIZION\SOURCE\REPOS\OPENCV\OPENCV\SOURCECH3.CPP
/c /ZI /JMC /nologo /W3 /WX- /diagnostics:column /sdl /Od /D _DEBUG /D _CONSOLE /D _UNICODE /D UNICODE /Gm- /EHsc /RTC1 /MDd /GS /fp:precise /Zc:wchar_t /Zc:forScope /Zc:inline /permissive- /Fo"X64\DEBUG\\" /Fd"X64\DEBUG\VC143.PDB" /external:W3 /Gd /TP /FC C:\USERS\TEVIZION\SOURCE\REPOS\OPENCV\OPENCV\SOURCECH3.CPP
^C:\USERS\TEVIZION\SOURCE\REPOS\OPENCV\OPENCV\ANALYSIS_SOURCE.CPP
/c /ZI /JMC /nologo /W3 /WX- /diagnostics:column /sdl /Od /D _DEBUG /D _CONSOLE /D _UNICODE /D UNICODE /Gm- /EHsc /RTC1 /MDd /GS /fp:precise /Zc:wchar_t /Zc:forScope /Zc:inline /permissive- /Fo"X64\DEBUG\\" /Fd"X64\DEBUG\VC143.PDB" /external:W3 /Gd /TP /FC C:\USERS\TEVIZION\SOURCE\REPOS\OPENCV\OPENCV\ANALYSIS_SOURCE.CPP
^C:\USERS\TEVIZION\SOURCE\REPOS\OPENCV\OPENCV\USECASE1_SOURCE.CPP
/c /ZI /JMC /nologo /W3 /WX- /diagnostics:column /sdl /Od /D _DEBUG /D _CONSOLE /D _UNICODE /D UNICODE /Gm- /EHsc /RTC1 /MDd /GS /fp:precise /Zc:wchar_t /Zc:forScope /Zc:inline /permissive- /Fo"X64\DEBUG\\" /Fd"X64\DEBUG\VC143.PDB" /external:W3 /Gd /TP /FC C:\USERS\TEVIZION\SOURCE\REPOS\OPENCV\OPENCV\USECASE1_SOURCE.CPP
^C:\USERS\TEVIZION\SOURCE\REPOS\OPENCV\OPENCV\FILTERINGCPP.CPP
/c /ZI /JMC /nologo /W3 /WX- /diagnostics:column /sdl /Od /D _DEBUG /D _CONSOLE /D _UNICODE /D UNICODE /Gm- /EHsc /RTC1 /MDd /GS /fp:precise /Zc:wchar_t /Zc:forScope /Zc:inline /permissive- /Fo"X64\DEBUG\\" /Fd"X64\DEBUG\VC143.PDB" /external:W3 /Gd /TP /FC C:\USERS\TEVIZION\SOURCE\REPOS\OPENCV\OPENCV\FILTERINGCPP.CPP
^C:\USERS\TEVIZION\SOURCE\REPOS\OPENCV\OPENCV\SOURCECH6CPP.CPP
/c /ZI /JMC /nologo /W3 /WX- /diagnostics:column /sdl /Od /D _DEBUG /D _CONSOLE /D _UNICODE /D UNICODE /Gm- /EHsc /RTC1 /MDd /GS /fp:precise /Zc:wchar_t /Zc:forScope /Zc:inline /permissive- /Fo"X64\DEBUG\\" /Fd"X64\DEBUG\VC143.PDB" /external:W3 /Gd /TP /FC C:\USERS\TEVIZION\SOURCE\REPOS\OPENCV\OPENCV\SOURCECH6CPP.CPP
^C:\USERS\TEVIZION\SOURCE\REPOS\OPENCV\OPENCV\OPENCV_RESOURCES\SOURCE_TEST.CPP
/c /ZI /JMC /nologo /W3 /WX- /diagnostics:column /sdl /Od /D _DEBUG /D _CONSOLE /D _UNICODE /D UNICODE /Gm- /EHsc /RTC1 /MDd /GS /fp:precise /Zc:wchar_t /Zc:forScope /Zc:inline /permissive- /Fo"X64\DEBUG\\" /Fd"X64\DEBUG\VC143.PDB" /external:W3 /Gd /TP /FC C:\USERS\TEVIZION\SOURCE\REPOS\OPENCV\OPENCV\OPENCV_RESOURCES\SOURCE_TEST.CPP
^C:\USERS\TEVIZION\SOURCE\REPOS\OPENCV\OPENCV\SOURCE_SHI-TOMASICORNER.CPP
/c /ZI /JMC /nologo /W3 /WX- /diagnostics:column /sdl /Od /D _DEBUG /D _CONSOLE /D _UNICODE /D UNICODE /Gm- /EHsc /RTC1 /MDd /GS /fp:precise /Zc:wchar_t /Zc:forScope /Zc:inline /permissive- /Fo"X64\DEBUG\\" /Fd"X64\DEBUG\VC143.PDB" /external:W3 /Gd /TP /FC C:\USERS\TEVIZION\SOURCE\REPOS\OPENCV\OPENCV\SOURCE_SHI-TOMASICORNER.CPP
^C:\USERS\TEVIZION\SOURCE\REPOS\OPENCV\OPENCV\SOURCE_FILTERS.CPP
/c /ZI /JMC /nologo /W3 /WX- /diagnostics:column /sdl /Od /D _DEBUG /D _CONSOLE /D _UNICODE /D UNICODE /Gm- /EHsc /RTC1 /MDd /GS /fp:precise /Zc:wchar_t /Zc:forScope /Zc:inline /permissive- /Fo"X64\DEBUG\\" /Fd"X64\DEBUG\VC143.PDB" /external:W3 /Gd /TP /FC C:\USERS\TEVIZION\SOURCE\REPOS\OPENCV\OPENCV\SOURCE_FILTERS.CPP
^C:\USERS\TEVIZION\SOURCE\REPOS\OPENCV\OPENCV\SOURCE_TEST.CPP
/c /ZI /JMC /nologo /W3 /WX- /diagnostics:column /sdl /Od /D _DEBUG /D _CONSOLE /D _UNICODE /D UNICODE /Gm- /EHsc /RTC1 /MDd /GS /fp:precise /Zc:wchar_t /Zc:forScope /Zc:inline /permissive- /Fo"X64\DEBUG\\" /Fd"X64\DEBUG\VC143.PDB" /external:W3 /Gd /TP /FC C:\USERS\TEVIZION\SOURCE\REPOS\OPENCV\OPENCV\SOURCE_TEST.CPP
^C:\USERS\TEVIZION\SOURCE\REPOS\OPENCV\OPENCV\SOURCE_HOG.CPP
/c /ZI /JMC /nologo /W3 /WX- /diagnostics:column /sdl /Od /D _DEBUG /D _CONSOLE /D _UNICODE /D UNICODE /Gm- /EHsc /RTC1 /MDd /GS /fp:precise /Zc:wchar_t /Zc:forScope /Zc:inline /permissive- /Fo"X64\DEBUG\\" /Fd"X64\DEBUG\VC143.PDB" /external:W3 /Gd /TP /FC C:\USERS\TEVIZION\SOURCE\REPOS\OPENCV\OPENCV\SOURCE_HOG.CPP
^C:\USERS\TEVIZION\SOURCE\REPOS\OPENCV\OPENCV\SOURCE_ACTIVATION_TEST.CPP
/c /ZI /JMC /nologo /W3 /WX- /diagnostics:column /sdl /Od /D _DEBUG /D _CONSOLE /D _UNICODE /D UNICODE /Gm- /EHsc /RTC1 /MDd /GS /fp:precise /Zc:wchar_t /Zc:forScope /Zc:inline /permissive- /Fo"X64\DEBUG\\" /Fd"X64\DEBUG\VC143.PDB" /external:W3 /Gd /TP /FC C:\USERS\TEVIZION\SOURCE\REPOS\OPENCV\OPENCV\SOURCE_ACTIVATION_TEST.CPP
^C:\USERS\TEVIZION\SOURCE\REPOS\OPENCV\OPENCV\SOURCE_CASE3.CPP
/c /ZI /JMC /nologo /W3 /WX- /diagnostics:column /sdl /Od /D _DEBUG /D _CONSOLE /D _UNICODE /D UNICODE /Gm- /EHsc /RTC1 /MDd /GS /fp:precise /Zc:wchar_t /Zc:forScope /Zc:inline /permissive- /Fo"X64\DEBUG\\" /Fd"X64\DEBUG\VC143.PDB" /external:W3 /Gd /TP /FC C:\USERS\TEVIZION\SOURCE\REPOS\OPENCV\OPENCV\SOURCE_CASE3.CPP
^C:\USERS\TEVIZION\SOURCE\REPOS\OPENCV\OPENCV\SOURCECH7CPP.CPP
/c /ZI /JMC /nologo /W3 /WX- /diagnostics:column /sdl /Od /D _DEBUG /D _CONSOLE /D _UNICODE /D UNICODE /Gm- /EHsc /RTC1 /MDd /GS /fp:precise /Zc:wchar_t /Zc:forScope /Zc:inline /permissive- /Fo"X64\DEBUG\\" /Fd"X64\DEBUG\VC143.PDB" /external:W3 /Gd /TP /FC C:\USERS\TEVIZION\SOURCE\REPOS\OPENCV\OPENCV\SOURCECH7CPP.CPP
^C:\USERS\TEVIZION\SOURCE\REPOS\OPENCV\OPENCV\SOURCE_CASE2.CPP
/c /ZI /JMC /nologo /W3 /WX- /diagnostics:column /sdl /Od /D _DEBUG /D _CONSOLE /D _UNICODE /D UNICODE /Gm- /EHsc /RTC1 /MDd /GS /fp:precise /Zc:wchar_t /Zc:forScope /Zc:inline /permissive- /Fo"X64\DEBUG\\" /Fd"X64\DEBUG\VC143.PDB" /external:W3 /Gd /TP /FC C:\USERS\TEVIZION\SOURCE\REPOS\OPENCV\OPENCV\SOURCE_CASE2.CPP
^C:\USERS\TEVIZION\SOURCE\REPOS\OPENCV\OPENCV\SOURCE_CASE3_HOG.CPP
/c /ZI /JMC /nologo /W3 /WX- /diagnostics:column /sdl /Od /D _DEBUG /D _CONSOLE /D _UNICODE /D UNICODE /Gm- /EHsc /RTC1 /MDd /GS /fp:precise /Zc:wchar_t /Zc:forScope /Zc:inline /permissive- /Fo"X64\DEBUG\\" /Fd"X64\DEBUG\VC143.PDB" /external:W3 /Gd /TP /FC C:\USERS\TEVIZION\SOURCE\REPOS\OPENCV\OPENCV\SOURCE_CASE3_HOG.CPP
^C:\USERS\TEVIZION\SOURCE\REPOS\OPENCV\OPENCV\SOURCE_CASE1.CPP
/c /ZI /JMC /nologo /W3 /WX- /diagnostics:column /sdl /Od /D _DEBUG /D _CONSOLE /D _UNICODE /D UNICODE /Gm- /EHsc /RTC1 /MDd /GS /fp:precise /Zc:wchar_t /Zc:forScope /Zc:inline /permissive- /Fo"X64\DEBUG\\" /Fd"X64\DEBUG\VC143.PDB" /external:W3 /Gd /TP /FC C:\USERS\TEVIZION\SOURCE\REPOS\OPENCV\OPENCV\SOURCE_CASE1.CPP
^C:\USERS\TEVIZION\SOURCE\REPOS\OPENCV\OPENCV\SOURCE_HARRISCORNERDET.CPP
/c /ZI /JMC /nologo /W3 /WX- /diagnostics:column /sdl /Od /D _DEBUG /D _CONSOLE /D _UNICODE /D UNICODE /Gm- /EHsc /RTC1 /MDd /GS /fp:precise /Zc:wchar_t /Zc:forScope /Zc:inline /permissive- /Fo"X64\DEBUG\\" /Fd"X64\DEBUG\VC143.PDB" /external:W3 /Gd /TP /FC C:\USERS\TEVIZION\SOURCE\REPOS\OPENCV\OPENCV\SOURCE_HARRISCORNERDET.CPP
^C:\USERS\TEVIZION\SOURCE\REPOS\OPENCV\OPENCV\HEADER FILES\IMAGE.CPP
/c /ZI /JMC /nologo /W3 /WX- /diagnostics:column /sdl /Od /D _DEBUG /D _CONSOLE /D _UNICODE /D UNICODE /Gm- /EHsc /RTC1 /MDd /GS /fp:precise /Zc:wchar_t /Zc:forScope /Zc:inline /permissive- /Fo"X64\DEBUG\\" /Fd"X64\DEBUG\VC143.PDB" /external:W3 /Gd /TP /FC C:\USERS\TEVIZION\SOURCE\REPOS\OPENCV\OPENCV\HEADER FILES\IMAGE.CPP
^C:\USERS\TEVIZION\SOURCE\REPOS\OPENCV\OPENCV\CASE3_VIDEO_SOURCE.CPP
/c /ZI /JMC /nologo /W3 /WX- /diagnostics:column /sdl /Od /D _DEBUG /D _CONSOLE /D _UNICODE /D UNICODE /Gm- /EHsc /RTC1 /MDd /GS /fp:precise /Zc:wchar_t /Zc:forScope /Zc:inline /permissive- /Fo"X64\DEBUG\\" /Fd"X64\DEBUG\VC143.PDB" /external:W3 /Gd /TP /FC C:\USERS\TEVIZION\SOURCE\REPOS\OPENCV\OPENCV\CASE3_VIDEO_SOURCE.CPP
^C:\USERS\TEVIZION\SOURCE\REPOS\OPENCV\OPENCV\VIDEO_TEST.CPP
/c /ZI /JMC /nologo /W3 /WX- /diagnostics:column /sdl /Od /D _DEBUG /D _CONSOLE /D _UNICODE /D UNICODE /Gm- /EHsc /RTC1 /MDd /GS /fp:precise /Zc:wchar_t /Zc:forScope /Zc:inline /permissive- /Fo"X64\DEBUG\\" /Fd"X64\DEBUG\VC143.PDB" /external:W3 /Gd /TP /FC C:\USERS\TEVIZION\SOURCE\REPOS\OPENCV\OPENCV\VIDEO_TEST.CPP
^C:\USERS\TEVIZION\SOURCE\REPOS\OPENCV\OPENCV\HEADER FILES\SOURCE_VIDEO.CPP
/c /ZI /JMC /nologo /W3 /WX- /diagnostics:column /sdl /Od /D _DEBUG /D _CONSOLE /D _UNICODE /D UNICODE /Gm- /EHsc /RTC1 /MDd /GS /fp:precise /Zc:wchar_t /Zc:forScope /Zc:inline /permissive- /Fo"X64\DEBUG\\" /Fd"X64\DEBUG\VC143.PDB" /external:W3 /Gd /TP /FC C:\USERS\TEVIZION\SOURCE\REPOS\OPENCV\OPENCV\HEADER FILES\SOURCE_VIDEO.CPP
